{
    "$schema" : "http://json-schema.org/draft-04/schema#",
    "title": "create-country",
    "type":"object",
    "properties": {
        "name":{
            "type":"string"
        },
        "population":{
            "type":"number"
        },
        "numOfStates":{
            "type":"number"
        }
    },
    "required":[
        "name",
        "population",
        "numOfStates"
    ],
    "additionalProperties": false
}